30
20
Object
Violator
2
9
1
Object
Violator
2
8
1
Object
Violator
2
12
1
Object
Platform
0
7
5
Module
Ray
0
7
5
1
0
1
Object
Platform
5
2
10
Module
Net
5
2
3
1
1
1
Module
Ray
5
2
5
1
0
1
Object
Robot
8
5
5
3
Module
Arms
8
5
2
1
0
1
Object
Platform
10
2
10
Module
Net
10
2
3
1
1
1
Module
Ray
10
2
5
1
0
1
Object
Robot
10
5
5
3
Module
Arms
10
5
2
1
0
1
Object
Platform
15
2
10
Module
Net
15
2
3
1
1
1
Module
Ray
15
2
5
1
0
1
Object
Robot
13
5
5
3
Module
Arms
13
5
3
1
0
1
Object
Platform
20
2
10
Module
Net
20
2
3
1
1
1
Module
Ray
20
2
5
1
0
1
Object
Robot
17
5
5
2
Module
Arms
17
5
2
1
0
1
Object
Platform
25
2
10
Module
Net
25
2
3
1
1
1
Module
Ray
25
2
5
1
0
1
Object
Robot
22
5
5
3
Module
Arms
22
5
1
1
0
1
Object
Platform
5
13
10
Module
Net
5
13
3
1
1
1
Module
Ray
5
13
5
1
0
1
Object
Robot
7
10
5
2
Module
Arms
7
10
3
1
0
1
Object
Platform
10
13
10
Module
Net
10
13
3
1
1
1
Module
Ray
10
13
5
1
0
1
Object
Robot
9
10
5
3
Module
Arms
9
10
2
1
0
1
Object
Platform
15
13
10
Module
Net
15
13
3
1
1
1
Module
Ray
15
13
5
1
0
1
Object
Robot
12
10
5
2
Module
Arms
12
10
3
1
0
1
Object
Platform
20
13
10
Module
Net
20
13
3
1
1
1
Module
Ray
20
13
5
1
0
1
Object
Robot
17
10
5
3
Module
Arms
17
10
2
1
0
1
Object
Platform
25
13
10
Module
Net
25
13
3
1
1
1
Module
Ray
25
13
5
1
0
1
Object
Robot
22
10
5
2
Module
Arms
22
10
1
1
0
1
Object
Robot
25
5
5
2
Object
Robot
25
10
5
2
Module
Arms
25
10
3
1
0
1
Module
Arms
25
5
2
1
0
1
Object
Violator
1
1
1
Object
Violator
1
2
1
Object
Violator
1
3
1
